ROI on Hand Picked Stocks 2007-2020
…
We now know that Dec-28-2015 is not the last trading day of the year, because the 29th through 31st for Tuesday through Thursday are also trading days. There was a fluctuation in dollars earned and lost all under a dollar. Some useful information to add in would be who or where are these trades derived. Are they financial advisors, trust fund managers, independent investors, foreign or national investors, are they hobbyists just playing the stock market on an e-trade, are they educated, experienced, and so on?

To get this information we could first find out how much it costs for a hobbyist to make a trade online from e-trade or similar and whether or not this information is shared on demographics of the stock ownership. We could also look at the American Survey on Census data from the census bureau for numer of financial workers there are and how many people graduated with a BS, MS, or Phd in Finance or Economics. If there is location data on where these stock owners live attach this information gathered to it to make a better inference on this stock and what motivates the trades. Any volunteers?

For now, we will just continue with what we have on hand for Citi. We can answer the question of whether or not, historically there are more trades in December than any other month in our data by grouping by month year and getting the median trades per month and year.

Citi_trades_monthYear <- C_stock %>% group_by(MonthYear) %>%
  summarise_at(vars(colnames(C_stock[2])), mean)
Citi_trades_monthYear <- Citi_trades_monthYear[order(Citi_trades_monthYear$C.Volume,decreasing=TRUE),]
Citi_trades_monthYear

## # A tibble: 157 x 2
##    MonthYear   C.Volume
##    <fct>          <dbl>
##  1 Dec-2011  102284343.
##  2 Dec-2012   97253820 
##  3 Feb-2007   94010711.
##  4 Feb-2008   80151765 
##  5 Dec-2019   79458262.
##  6 Aug-2019   72849682.
##  7 Feb-2015   70393405.
##  8 Dec-2015   67380332.
##  9 Jan-2010   64943774.
## 10 Jan-2012   63211745 
## #  with 147 more rows
…
